"Time (s)"	"Linear Acceleration x (m/s^2)"	"Linear Acceleration y (m/s^2)"	"Linear Acceleration z (m/s^2)"	"Absolute acceleration (m/s^2)"
0.000000000E0	-4.144762456E-2	5.927270055E-1	4.044437408E-2	5.955492893E-1
9.998000000E-3	-5.056691915E-2	5.925235748E-1	4.031658173E-2	5.960424706E-1
1.999600000E-2	1.608623862E-1	4.104134440E-1	6.414508820E-2	4.454553790E-1
2.999366600E-2	8.495750278E-2	4.034804106E-1	7.842063904E-2	4.197189722E-1
4.024116600E-2	2.305087075E-2	4.382979870E-1	6.083297729E-2	4.430994461E-1
5.043876600E-2	4.915222526E-2	4.774351120E-1	7.982921600E-2	4.865520847E-1
6.060309900E-2	5.265305936E-2	4.324340820E-1	9.347724915E-2	4.455441348E-1
7.074352700E-2	8.722741157E-2	4.466013312E-1	1.167974472E-1	4.697903938E-1
8.086615200E-2	8.536072820E-2	4.308953285E-1	1.162414551E-1	4.543889457E-1
9.097481800E-2	1.568325162E-1	5.940981507E-1	1.037130356E-1	6.231415927E-1
1.010724180E-1	7.151168585E-1	5.790919065E-1	1.677732468E-1	9.353541681E-1
1.111609630E-1	-4.997197688E-1	1.071408391E0	6.894874573E-2	1.184225366E0
1.212418790E-1	-4.088981748E-1	1.035527349E0	-7.540798187E-2	1.115885734E0
1.313163400E-1	-1.517843306E-1	1.147203565E0	6.511783600E-2	1.159031852E0
1.413853400E-1	2.682198286E-1	1.203768611E0	1.194362640E-1	1.239058419E0
1.514538730E-1	9.545192122E-3	1.158954620E0	9.961795807E-2	1.163267235E0
1.615139350E-1	-4.706211388E-3	1.131114125E0	5.600070953E-2	1.132509334E0
1.715703460E-1	-4.811133072E-2	1.075567722E0	5.325794220E-2	1.077959662E0
1.816234570E-1	-2.316385135E-2	1.022274137E0	1.440935135E-1	1.032639296E0
1.916736670E-1	8.817393333E-2	9.337844253E-1	2.638540268E-1	9.743443656E-1
2.017212170E-1	-1.851401851E-2	1.096440315E0	-1.118288040E-1	1.102283909E0
2.117664070E-1	-5.940683186E-4	9.630256891E-1	7.293701172E-2	9.657839502E-1
2.218094520E-1	8.445207775E-2	9.194648266E-1	4.956626892E-2	9.246645531E-1
2.318504950E-1	-3.802262247E-3	8.416750431E-1	7.660961151E-2	8.451629239E-1
2.418897450E-1	-3.761481494E-3	8.047758341E-1	7.742118835E-2	8.085000509E-1
2.519273050E-1	9.434215724E-3	8.036651611E-1	2.459039688E-1	8.404971490E-1
2.619648050E-1	3.801465780E-2	6.483374238E-1	2.659521103E-1	7.017955929E-1
2.719993970E-1	7.006569207E-2	6.279927492E-1	-2.144222260E-1	6.672787913E-1
2.820326820E-1	4.051522166E-2	6.216914654E-1	-3.398227692E-2	6.239363401E-1
2.920647160E-1	3.864064068E-2	5.978081226E-1	-3.310012817E-2	5.999693901E-1
3.020956160E-1	-3.036153689E-2	8.489402533E-1	-4.750881195E-1	9.733088399E-1
3.121265160E-1	1.855148375E-1	6.531292796E-1	-7.112503052E-3	6.790023553E-1
3.221573820E-1	1.841619015E-1	6.291357279E-1	-6.042480469E-3	6.555637891E-1
3.321882820E-1	5.722590163E-2	7.972217798E-1	-3.112936020E-1	8.577535058E-1
3.421858480E-1	-2.835803032E-1	5.575546026E-1	2.669296265E-1	6.801002490E-1
3.521834140E-1	-3.417074680E-1	4.957061410E-1	1.985988617E-1	6.339795579E-1
3.621800140E-1	-1.250526309E-1	6.058243513E-1	3.863887787E-1	7.293542304E-1
3.721775800E-1	2.027970105E-1	5.825355053E-1	-4.098663330E-1	7.405839948E-1
3.821751130E-1	-1.654490978E-1	6.623429060E-1	-2.483882904E-1	7.264766148E-1
3.921726790E-1	-1.652197093E-1	6.433865428E-1	-2.472496033E-1	7.087849900E-1
4.021702450E-1	8.106931299E-2	2.619467974E-1	2.491369247E-1	3.704828814E-1
4.121677780E-1	1.621511206E-2	5.365275741E-1	-3.535814285E-1	6.427632489E-1
4.221653440E-1	-1.079925969E-1	5.633928776E-1	5.451545715E-1	7.913706100E-1
4.321629100E-1	-3.593005240E-2	4.453901649E-1	-2.702989578E-1	5.222306906E-1
4.421604760E-1	1.045062840E-1	4.225757718E-1	7.536697388E-2	4.417827827E-1
4.521558760E-1	1.055248156E-1	4.085112214E-1	7.633113861E-2	4.287695738E-1
4.621534420E-1	1.258851439E-1	3.677568436E-1	4.027938843E-1	5.597634131E-1
4.721509750E-1	-4.892393947E-2	3.626823425E-1	1.095603943E0	1.155110399E0
4.821485410E-1	-3.324187398E-1	5.160323381E-1	-1.006746292E-1	6.220345437E-1
4.921461070E-1	-3.295244575E-1	5.043511987E-1	-9.981060028E-2	6.106706605E-1
5.021436730E-1	-4.972512722E-1	4.155620337E-1	5.354080200E-1	8.406023908E-1
5.121412390E-1	-4.932563901E-1	4.066433311E-1	5.360927582E-1	8.342997725E-1
5.221387720E-1	3.957275301E-2	3.100132942E-2	6.826763153E-1	6.845246794E-1
5.321363380E-1	5.240529776E-3	-7.082533836E-2	2.352256775E-1	2.457128630E-1
5.421338710E-1	5.766417831E-3	-7.300907373E-2	2.353954315E-1	2.465250202E-1
5.521314370E-1	2.672537267E-1	3.558591008E-1	-9.615783691E-1	1.059572184E0
5.621303370E-1	2.635027766E-1	3.526927829E-1	-9.613437653E-1	1.057358855E0
5.721279030E-1	4.812313989E-2	2.244435549E-1	-3.914079666E-1	4.537520713E-1
5.821254690E-1	7.415646315E-2	2.496160269E-1	2.086639404E-2	2.612331302E-1
5.921230350E-1	6.015276536E-2	2.079038620E-1	2.485809326E-1	3.295980144E-1
6.021206010E-1	-2.243488282E-2	4.804053307E-1	-1.391279221E0	1.472056546E0
6.121181340E-1	-2.577405423E-2	4.741725922E-1	-1.390789032E0	1.469625150E0
6.221157000E-1	-4.801887274E-1	4.561002254E-1	5.801897049E-1	8.804707396E-1
6.321132330E-1	-1.743144840E-1	3.934185505E-1	2.675609589E-1	5.067075704E-1
6.421108330E-1	-1.695932150E-1	3.834135532E-1	2.683963776E-1	4.977995850E-1
6.521083990E-1	3.686068207E-2	3.917544484E-1	6.449928284E-1	7.555435172E-1
6.621071990E-1	-6.557537317E-1	2.424011230E-1	1.675215721E0	1.815246257E0
6.721047650E-1	-6.528785825E-1	2.356342673E-1	1.675798416E0	1.813856191E0
6.821023310E-1	-2.787813544E-1	8.367717266E-2	3.044013977E-1	4.211663848E-1
6.920998970E-1	-2.624537647E-1	-2.777165174E-2	2.736005783E-1	3.801453928E-1
7.020974300E-1	-3.479239643E-1	1.223815680E-1	9.512519836E-1	1.020249317E0
7.120949960E-1	-6.398928165E-1	4.016454220E-1	9.080238342E-1	1.181223580E0
7.220925290E-1	-6.375513673E-1	4.001421332E-1	9.081640244E-1	1.179553885E0
7.320900950E-1	-5.610473752E-1	2.058917284E-2	5.776662827E-1	8.055410637E-1
7.420876610E-1	6.139440089E-2	4.268405437E-1	-1.454789162E0	1.517357449E0
7.520852270E-1	4.664934576E-1	-1.667643785E-1	1.140995979E0	1.243904469E0
7.620828270E-1	1.611010730E-1	8.925865889E-1	-2.235975266E-1	9.341628489E-1
7.720803930E-1	1.289146662E0	3.439363241E-1	9.267778397E-1	1.624533310E0
7.820779590E-1	-5.452935696E-1	6.895303726E-2	-2.120952606E-1	5.891383521E-1
7.920754920E-1	9.572370350E-2	3.923290968E-1	-6.687459946E-1	7.812210653E-1
